…
\*Reformat data so that route number and route name are distinct
variables. How many distinct stations serve the A train? Of the stations
that serve the A train, how many are ADA compliant?

There are `60` distinct stations that serve the A train, and of these
stations there are `17` stations are ADA compliant.

``` r
transit_df_tidy %>%
  filter(train == "A") %>%
  select(station_name, line) %>%
  distinct
```

    ## # A tibble: 60 × 2
    ##    station_name                  line           
    ##    <chr>                         <chr>          
    ##  1 Times Square                  42nd St Shuttle
    ##  2 125th St                      8 Avenue       
    ##  3 145th St                      8 Avenue       
    ##  4 14th St                       8 Avenue       
    ##  5 168th St - Washington Heights 8 Avenue       
    ##  6 175th St                      8 Avenue       
    ##  7 181st St                      8 Avenue       
    ##  8 190th St                      8 Avenue       
    ##  9 34th St                       8 Avenue       
    ## 10 42nd St                       8 Avenue       
    ## # … with 50 more rows
…
